<?xml version="1.0" encoding="UTF-8" standalone="no"?>
<!-- Uploaded to: SVG Repo, www.svgrepo.com, Generator: SVG Repo Mixer Tools -->

<svg
   width="800px"
   height="800px"
   viewBox="0 0 48 48"
   version="1.1"
   id="svg15"
   sodipodi:docname="aide.svg"
   inkscape:version="1.1.2 (0a00cf5339, 2022-02-04)"
   xmlns:inkscape="http://www.inkscape.org/namespaces/inkscape"
   xmlns:sodipodi="http://sodipodi.sourceforge.net/DTD/sodipodi-0.dtd"
   xmlns="http://www.w3.org/2000/svg"
   xmlns:svg="http://www.w3.org/2000/svg"
   xmlns:rdf="http://www.w3.org/1999/02/22-rdf-syntax-ns#"
   xmlns:cc="http://creativecommons.org/ns#"
   xmlns:dc="http://purl.org/dc/elements/1.1/">
  <defs
     id="defs19">
    <rect
       x="-11.506643"
       y="148.60259"
       width="38.300742"
       height="62.517218"
       id="rect14529" />
    <rect
       x="-138.0563"
       y="353.09436"
       width="182.48594"
       height="186.06644"
       id="rect8547" />
    <rect
       x="16.131438"
       y="232.43893"
       width="205.04295"
       height="206.31595"
       id="rect3022" />
  </defs>
  <sodipodi:namedview
     id="namedview17"
     pagecolor="#ffffff"
     bordercolor="#666666"
     borderopacity="1.0"
     inkscape:pageshadow="2"
     inkscape:pageopacity="0.0"
     inkscape:pagecheckerboard="0"
     showgrid="false"
     inkscape:zoom="0.94125"
     inkscape:cx="394.15671"
     inkscape:cy="400.53121"
     inkscape:window-width="1920"
     inkscape:window-height="1012"
     inkscape:window-x="0"
     inkscape:window-y="0"
     inkscape:window-maximized="1"
     inkscape:current-layer="g1958" />
  <title
     id="title2">information-circle</title>
  <path
     d="M 24,2 A 22,22 0 1 0 46,24 21.9,21.9 0 0 0 24,2 Z m 0,40 A 18,18 0 1 1 42,24 18.1,18.1 0 0 1 24,42 Z"
     id="path7"
     style="fill:#72a7cf;fill-opacity:1" />
  <metadata
     id="metadata836">
    <rdf:RDF>
      <cc:Work
         rdf:about="">
        <dc:title>information-circle</dc:title>
      </cc:Work>
    </rdf:RDF>
  </metadata>
  <g
     id="g1958"
     transform="matrix(0.5675645,0,0,0.5675645,23.25922,12.625581)"
     style="fill:#72a7cf;fill-opacity:1;stroke:none">
    <g
       aria-label="?"
       transform="matrix(1.2752094,0,0,1.2752094,4.1436277,-195.02859)"
       id="text14527"
       style="font-size:40px;line-height:1.25;white-space:pre;shape-inside:url(#rect14529)">
      <path
         d="m 0.73414063,182.43414 q 0,1.12 -0.84,1.96 -0.84,0.84 -1.96000003,0.84 -1.12,0 -2,-0.84 -0.84,-0.8 -0.84,-1.96 0,-1.16 0.84,-1.96 0.88,-0.8 2,-0.8 1.12000003,0 1.96000003,0.8 0.84,0.8 0.84,1.96 z m 7.55999997,-21.64 q 0,1.68 -0.52,2.96 -0.48,1.24 -1.32,2.2 -0.8,0.92 -1.84,1.64 -1,0.68 -2,1.32 -1.12,0.68 -2.07999998,1.48 -0.95999999,0.76 -1.31999999,1.6 -0.40000003,1.08 -0.40000003,2.4 0,0.56 0.20000002,1.24 0.08,0.44 0.20000001,0.84 0.11999999,0.4 0.11999999,0.84 0,0.8 -0.64000002,1.36 -0.6,0.56 -1.32,0.56 -0.88,0 -1.36,-0.56 -0.44,-0.6 -0.44,-1.36 0,-0.12 -0.08,-0.52 -0.04,-0.4 -0.12,-0.76 -0.2,-0.88 -0.2,-1.64 0,-1.76 0.36,-2.96 0.36,-1.2 1,-2.08 0.64,-0.88 1.56,-1.56 0.92000002,-0.72 2.04000002,-1.52 v 0.04 q 0.32,-0.2 0.60000001,-0.4 0.31999997,-0.24 0.63999997,-0.48 1.28,-0.88 2.28,-1.96 1,-1.08 1,-2.68 0,-1.32 -0.64,-2.28 -0.64,-0.96 -1.64,-1.56 -0.96,-0.64 -2.19999998,-0.96 -1.24000002,-0.32 -2.44000002,-0.32 -1.2,0 -2.4,0.32 -1.2,0.32 -2.2,0.96 -1,0.6 -1.64,1.56 -0.6,0.96 -0.6,2.28 0,0.76 -0.56,1.28 -0.5599996,0.52 -1.2799996,0.52 -0.76,0 -1.28,-0.52 -0.52,-0.52 -0.52,-1.28 0,-2.16 0.92,-3.8 0.92,-1.64 2.3999996,-2.72 1.52,-1.12 3.4,-1.64 1.88,-0.56 3.76,-0.56 1.88000003,0 3.76,0.56 1.92,0.52 3.4,1.64 1.52,1.08 2.44,2.72 0.96,1.64 0.96,3.8 z"
         style="font-weight:bold;font-family:'Cursive standard';-inkscape-font-specification:'Cursive standard Bold'"
         id="path33093" />
    </g>
  </g>
  <text
     xml:space="preserve"
     transform="scale(0.06)"
     id="text8545"
     style="fill:black;fill-opacity:1;line-height:1.25;stroke:none;font-family:sans-serif;font-style:normal;font-weight:normal;font-size:40px;white-space:pre;shape-inside:url(#rect8547)" />
</svg>
